,"-6.233843,106.874176","-6.224868,106.870032","-6.116235,106.778496","-6.126956,106.768867","-6.4511705,106.7984266","-6.4571066,106.7660411","-6.200126,106.886217","-6.286079,106.829209","-6.369802314,106.8138831854","-6.223358737,106.8852664903"
"-6.233843,106.874176",0,1685,23448,27140,28061,33721,6884,9953,22582,4062
"-6.224868,106.870032",2328,0,24306,27998,28573,34233,6486,10464,23093,2376
"-6.116235,106.778496",24526,23019,0,5866,44002,49430,21636,23366,38523,22853
"-6.126956,106.768867",27529,27740,8575,0,47006,49802,25794,26370,41526,27574
"-6.4511705,106.7984266",30037,31827,43785,47462,0,6233,37025,22054,11329,33223
"-6.4571066,106.7660411",35685,37474,48915,50442,6233,0,42673,27702,14923,38871
"-6.200126,106.886217",6039,6015,20293,26364,34177,39838,0,17780,28698,3456
"-6.286079,106.829209",11178,12967,22619,26295,21682,27342,18166,0,12481,14950
"-6.369802314,106.8138831854",21221,23011,34969,38646,10400,14923,28209,13238,0,24407
"-6.223358737,106.8852664903",3789,3124,24887,28579,32789,38449,4189,14889,27309,0
